…
The following object is masked from 'package:readr':

    guess_encoding

Rows: 1694 Columns: 5
── Column specification ────────────────────────────────────────────────────────
Delimiter: ","
chr (4): Team Name, Team Abbr., League, URL
dbl (1): Season

ℹ Use `spec()` to retrieve the full column specification for this data.
ℹ Specify the column types or set `show_col_types = FALSE` to quiet this message.
Processing batch 1 of 1 at 2024-12-18 23:05:05
Total processing time: 2.21 minutes
# A tibble: 92 × 2
   Birthplace Country               
   <chr>      <chr>                 
 1 ag         Antigua and Barbuda   
 2 ao         Angola                
 3 ar         Argentina             
 4 at         Austria               
 5 au         Australia             
 6 ba         Bosnia and Herzegovina
 7 be         Belgium               
 8 bg         Bulgaria              
 9 br         Brazil                
10 bs         Bahamas               
# ℹ 82 more rows
…
